^D:\EXERCITII\ANUL 2 SEM 2\CNA\TEMA1CLOUD\SERVER\ADDITIONSERVICEIMPL.CPP|D:\EXERCITII\ANUL 2 SEM 2\CNA\TEMA1CLOUD\SERVER\SERVER.CPP
D:\EXERCITII\ANUL 2 SEM 2\CNA\TEMA1CLOUD\SERVER\DEBUG\VC142.PDB
D:\EXERCITII\ANUL 2 SEM 2\CNA\TEMA1CLOUD\SERVER\DEBUG\VC142.IDB
D:\EXERCITII\ANUL 2 SEM 2\CNA\TEMA1CLOUD\SERVER\DEBUG\SERVER.OBJ
D:\EXERCITII\ANUL 2 SEM 2\CNA\TEMA1CLOUD\SERVER\DEBUG\ADDITIONSERVICEIMPL.OBJ
^D:\EXERCITII\ANUL 2 SEM 2\CNA\TEMA1CLOUD\SERVER\SERVER.CPP
D:\EXERCITII\ANUL 2 SEM 2\CNA\TEMA1CLOUD\SERVER\DEBUG\VC142.PDB
^D:\EXERCITII\ANUL 2 SEM 2\CNA\TEMA1CLOUD\SERVER\ADDITIONSERVICEIMPL.CPP
D:\EXERCITII\ANUL 2 SEM 2\CNA\TEMA1CLOUD\SERVER\DEBUG\VC142.PDB
D:\EXERCITII\ANUL 2 SEM 2\CNA\TEMA1CLOUD\SERVER\DEBUG\VC142.IDB
D:\EXERCITII\ANUL 2 SEM 2\CNA\TEMA1CLOUD\SERVER\DEBUG\ADDITIONSERVICEIMPL.OBJ
